﻿<root dataType="Struct" type="The_ESG.StateManager" id="129723834">
  <_x003C_gameState_x003E_k__BackingField dataType="Int">0</_x003C_gameState_x003E_k__BackingField>
  <assetInfo />
</root>
<!-- XmlFormatterBase Document Separator -->
