﻿<root dataType="Struct" type="The_ESG.StageProperties" id="129723834">
  <_x003C_BgMusic_x003E_k__BackingField dataType="Struct" type="Duality.ContentRef`1[[Duality.Resources.Sound]]" />
  <_x003C_cellQuantity_x003E_k__BackingField dataType="Int">0</_x003C_cellQuantity_x003E_k__BackingField>
  <_x003C_levelScene_x003E_k__BackingField dataType="Struct" type="Duality.ContentRef`1[[Duality.Resources.Scene]]">
    <contentPath dataType="String">Data\Scenes\Sc_GameOver.Scene.res</contentPath>
  </_x003C_levelScene_x003E_k__BackingField>
  <_x003C_maxSpawners_x003E_k__BackingField dataType="Int">0</_x003C_maxSpawners_x003E_k__BackingField>
  <_x003C_maxSquadSpawns_x003E_k__BackingField dataType="Int">0</_x003C_maxSquadSpawns_x003E_k__BackingField>
  <_x003C_spawnIntervals_x003E_k__BackingField dataType="Float">0</_x003C_spawnIntervals_x003E_k__BackingField>
  <_x003C_squadList_x003E_k__BackingField />
  <_x003C_stageIndex_x003E_k__BackingField dataType="Int">0</_x003C_stageIndex_x003E_k__BackingField>
  <_x003C_stageName_x003E_k__BackingField dataType="String">rip</_x003C_stageName_x003E_k__BackingField>
  <_x003C_Vertical_x003E_k__BackingField dataType="Bool">false</_x003C_Vertical_x003E_k__BackingField>
  <assetInfo />
</root>
<!-- XmlFormatterBase Document Separator -->
