﻿<root dataType="Struct" type="Duality.Resources.Prefab" id="129723834">
  <assetInfo dataType="Struct" type="Duality.Editor.AssetManagement.AssetInfo" id="427169525">
    <customData />
    <importerId />
    <sourceFileHint />
  </assetInfo>
  <objTree dataType="Struct" type="Duality.GameObject" id="4109167206">
    <active dataType="Bool">true</active>
    <children />
    <compList dataType="Struct" type="System.Collections.Generic.List`1[[Duality.Component]]" id="3232812145">
      <_items dataType="Array" type="Duality.Component[]" id="3973642926" length="4">
        <item dataType="Struct" type="Duality.Components.Transform" id="2174514842">
          <active dataType="Bool">true</active>
          <angle dataType="Float">0</angle>
          <angleAbs dataType="Float">0</angleAbs>
          <angleVel dataType="Float">0</angleVel>
          <angleVelAbs dataType="Float">0</angleVelAbs>
          <deriveAngle dataType="Bool">true</deriveAngle>
          <gameobj dataType="ObjectRef">4109167206</gameobj>
          <ignoreParent dataType="Bool">false</ignoreParent>
          <parentTransform />
          <pos dataType="Struct" type="Duality.Vector3">
            <X dataType="Float">-0.278193474</X>
            <Y dataType="Float">-222.338318</Y>
            <Z dataType="Float">0</Z>
          </pos>
          <posAbs dataType="Struct" type="Duality.Vector3">
            <X dataType="Float">-0.278193474</X>
            <Y dataType="Float">-222.338318</Y>
            <Z dataType="Float">0</Z>
          </posAbs>
          <scale dataType="Float">6.837692</scale>
          <scaleAbs dataType="Float">6.837692</scaleAbs>
          <vel dataType="Struct" type="Duality.Vector3" />
          <velAbs dataType="Struct" type="Duality.Vector3" />
        </item>
        <item dataType="Struct" type="Duality.Components.Renderers.TextRenderer" id="1556828732">
          <active dataType="Bool">true</active>
          <blockAlign dataType="Enum" type="Duality.Alignment" name="Center" value="0" />
          <colorTint dataType="Struct" type="Duality.Drawing.ColorRgba">
            <A dataType="Byte">255</A>
            <B dataType="Byte">255</B>
            <G dataType="Byte">255</G>
            <R dataType="Byte">255</R>
          </colorTint>
          <customMat />
          <gameobj dataType="ObjectRef">4109167206</gameobj>
          <iconMat dataType="Struct" type="Duality.ContentRef`1[[Duality.Resources.Material]]" />
          <offset dataType="Int">0</offset>
          <text dataType="Struct" type="Duality.Drawing.FormattedText" id="4292464744">
            <flowAreas />
            <fonts dataType="Array" type="Duality.ContentRef`1[[Duality.Resources.Font]][]" id="3256407084">
              <item dataType="Struct" type="Duality.ContentRef`1[[Duality.Resources.Font]]">
                <contentPath dataType="String">Default:Font:GenericMonospace10</contentPath>
              </item>
            </fonts>
            <icons />
            <lineAlign dataType="Enum" type="Duality.Alignment" name="Center" value="0" />
            <maxHeight dataType="Int">50</maxHeight>
            <maxWidth dataType="Int">100</maxWidth>
            <sourceText dataType="String">Game_Over</sourceText>
            <wrapMode dataType="Enum" type="Duality.Drawing.FormattedText+WrapMode" name="Word" value="1" />
          </text>
          <visibilityGroup dataType="Enum" type="Duality.Drawing.VisibilityFlag" name="Group0" value="1" />
        </item>
      </_items>
      <_size dataType="Int">2</_size>
      <_version dataType="Int">2</_version>
    </compList>
    <compMap dataType="Struct" type="System.Collections.Generic.Dictionary`2[[System.Type],[Duality.Component]]" id="3594949344" surrogate="true">
      <header />
      <body>
        <keys dataType="Array" type="System.Object[]" id="2566197723">
          <item dataType="Type" id="2467552406" value="Duality.Components.Transform" />
          <item dataType="Type" id="742261978" value="Duality.Components.Renderers.TextRenderer" />
        </keys>
        <values dataType="Array" type="System.Object[]" id="3401386856">
          <item dataType="ObjectRef">2174514842</item>
          <item dataType="ObjectRef">1556828732</item>
        </values>
      </body>
    </compMap>
    <compTransform dataType="ObjectRef">2174514842</compTransform>
    <identifier dataType="Struct" type="System.Guid" surrogate="true">
      <header>
        <data dataType="Array" type="System.Byte[]" id="2525404433">aaJF1Kk+/Eiqnx4+F+Kd8w==</data>
      </header>
      <body />
    </identifier>
    <initState dataType="Enum" type="Duality.InitState" name="Initialized" value="1" />
    <name dataType="String">game over text</name>
    <parent />
    <prefabLink />
  </objTree>
</root>
<!-- XmlFormatterBase Document Separator -->
