﻿<root dataType="Struct" type="Duality.Resources.Prefab" id="129723834">
  <assetInfo dataType="Struct" type="Duality.Editor.AssetManagement.AssetInfo" id="427169525">
    <customData />
    <importerId />
    <sourceFileHint />
  </assetInfo>
  <objTree dataType="Struct" type="Duality.GameObject" id="1766932833">
    <active dataType="Bool">true</active>
    <children />
    <compList dataType="Struct" type="System.Collections.Generic.List`1[[Duality.Component]]" id="4226647674">
      <_items dataType="Array" type="Duality.Component[]" id="1645156224" length="4">
        <item dataType="Struct" type="Duality.Components.Transform" id="4127247765">
          <active dataType="Bool">true</active>
          <angle dataType="Float">0</angle>
          <angleAbs dataType="Float">0</angleAbs>
          <angleVel dataType="Float">0</angleVel>
          <angleVelAbs dataType="Float">0</angleVelAbs>
          <deriveAngle dataType="Bool">true</deriveAngle>
          <gameobj dataType="ObjectRef">1766932833</gameobj>
          <ignoreParent dataType="Bool">false</ignoreParent>
          <parentTransform />
          <pos dataType="Struct" type="Duality.Vector3">
            <X dataType="Float">-170.833328</X>
            <Y dataType="Float">-170.833313</Y>
            <Z dataType="Float">0</Z>
          </pos>
          <posAbs dataType="Struct" type="Duality.Vector3">
            <X dataType="Float">-170.833328</X>
            <Y dataType="Float">-170.833313</Y>
            <Z dataType="Float">0</Z>
          </posAbs>
          <scale dataType="Float">2.03774333</scale>
          <scaleAbs dataType="Float">2.03774333</scaleAbs>
          <vel dataType="Struct" type="Duality.Vector3" />
          <velAbs dataType="Struct" type="Duality.Vector3" />
        </item>
        <item dataType="Struct" type="Duality.Components.Renderers.AnimSpriteRenderer" id="1474368214">
          <active dataType="Bool">true</active>
          <animDuration dataType="Float">5</animDuration>
          <animFirstFrame dataType="Int">3</animFirstFrame>
          <animFrameCount dataType="Int">3</animFrameCount>
          <animLoopMode dataType="Enum" type="Duality.Components.Renderers.AnimSpriteRenderer+LoopMode" name="Once" value="0" />
          <animPaused dataType="Bool">true</animPaused>
          <animTime dataType="Float">0</animTime>
          <colorTint dataType="Struct" type="Duality.Drawing.ColorRgba">
            <A dataType="Byte">255</A>
            <B dataType="Byte">255</B>
            <G dataType="Byte">255</G>
            <R dataType="Byte">255</R>
          </colorTint>
          <customFrameSequence />
          <customMat />
          <flipMode dataType="Enum" type="Duality.Components.Renderers.SpriteRenderer+FlipMode" name="None" value="0" />
          <gameobj dataType="ObjectRef">1766932833</gameobj>
          <offset dataType="Int">0</offset>
          <pixelGrid dataType="Bool">false</pixelGrid>
          <rect dataType="Struct" type="Duality.Rect">
            <H dataType="Float">80</H>
            <W dataType="Float">80</W>
            <X dataType="Float">-40</X>
            <Y dataType="Float">-40</Y>
          </rect>
          <rectMode dataType="Enum" type="Duality.Components.Renderers.SpriteRenderer+UVMode" name="Stretch" value="0" />
          <sharedMat dataType="Struct" type="Duality.ContentRef`1[[Duality.Resources.Material]]">
            <contentPath dataType="String">Data\Graphics\Sprites\UI\UIsht.Material.res</contentPath>
          </sharedMat>
          <visibilityGroup dataType="Enum" type="Duality.Drawing.VisibilityFlag" name="Group0" value="1" />
        </item>
      </_items>
      <_size dataType="Int">2</_size>
      <_version dataType="Int">2</_version>
    </compList>
    <compMap dataType="Struct" type="System.Collections.Generic.Dictionary`2[[System.Type],[Duality.Component]]" id="886724410" surrogate="true">
      <header />
      <body>
        <keys dataType="Array" type="System.Object[]" id="1913368000">
          <item dataType="Type" id="28257052" value="Duality.Components.Transform" />
          <item dataType="Type" id="658005526" value="Duality.Components.Renderers.AnimSpriteRenderer" />
        </keys>
        <values dataType="Array" type="System.Object[]" id="2586436686">
          <item dataType="ObjectRef">4127247765</item>
          <item dataType="ObjectRef">1474368214</item>
        </values>
      </body>
    </compMap>
    <compTransform dataType="ObjectRef">4127247765</compTransform>
    <identifier dataType="Struct" type="System.Guid" surrogate="true">
      <header>
        <data dataType="Array" type="System.Byte[]" id="2438392156">mQK0fuXTRUORl8TDlRs4vQ==</data>
      </header>
      <body />
    </identifier>
    <initState dataType="Enum" type="Duality.InitState" name="Initialized" value="1" />
    <name dataType="String">ScoreEmblem</name>
    <parent />
    <prefabLink />
  </objTree>
</root>
<!-- XmlFormatterBase Document Separator -->
