﻿<root dataType="Struct" type="Duality.Resources.Prefab" id="129723834">
  <assetInfo dataType="Struct" type="Duality.Editor.AssetManagement.AssetInfo" id="427169525">
    <customData />
    <importerId />
    <sourceFileHint />
  </assetInfo>
  <objTree dataType="Struct" type="Duality.GameObject" id="792324237">
    <active dataType="Bool">true</active>
    <children />
    <compList dataType="Struct" type="System.Collections.Generic.List`1[[Duality.Component]]" id="1772273006">
      <_items dataType="Array" type="Duality.Component[]" id="3188078672" length="4">
        <item dataType="Struct" type="Duality.Components.Transform" id="3152639169">
          <active dataType="Bool">true</active>
          <angle dataType="Float">0</angle>
          <angleAbs dataType="Float">0</angleAbs>
          <angleVel dataType="Float">0</angleVel>
          <angleVelAbs dataType="Float">0</angleVelAbs>
          <deriveAngle dataType="Bool">true</deriveAngle>
          <gameobj dataType="ObjectRef">792324237</gameobj>
          <ignoreParent dataType="Bool">false</ignoreParent>
          <parentTransform />
          <pos dataType="Struct" type="Duality.Vector3" />
          <posAbs dataType="Struct" type="Duality.Vector3" />
          <scale dataType="Float">0.5</scale>
          <scaleAbs dataType="Float">0.5</scaleAbs>
          <vel dataType="Struct" type="Duality.Vector3" />
          <velAbs dataType="Struct" type="Duality.Vector3" />
        </item>
        <item dataType="Struct" type="Duality.Components.Renderers.AnimSpriteRenderer" id="499759618">
          <active dataType="Bool">true</active>
          <animDuration dataType="Float">5</animDuration>
          <animFirstFrame dataType="Int">0</animFirstFrame>
          <animFrameCount dataType="Int">5</animFrameCount>
          <animLoopMode dataType="Enum" type="Duality.Components.Renderers.AnimSpriteRenderer+LoopMode" name="Once" value="0" />
          <animPaused dataType="Bool">false</animPaused>
          <animTime dataType="Float">0</animTime>
          <colorTint dataType="Struct" type="Duality.Drawing.ColorRgba">
            <A dataType="Byte">255</A>
            <B dataType="Byte">255</B>
            <G dataType="Byte">255</G>
            <R dataType="Byte">255</R>
          </colorTint>
          <customFrameSequence />
          <customMat />
          <flipMode dataType="Enum" type="Duality.Components.Renderers.SpriteRenderer+FlipMode" name="None" value="0" />
          <gameobj dataType="ObjectRef">792324237</gameobj>
          <offset dataType="Int">0</offset>
          <pixelGrid dataType="Bool">false</pixelGrid>
          <rect dataType="Struct" type="Duality.Rect">
            <H dataType="Float">64</H>
            <W dataType="Float">64</W>
            <X dataType="Float">-32</X>
            <Y dataType="Float">-32</Y>
          </rect>
          <rectMode dataType="Enum" type="Duality.Components.Renderers.SpriteRenderer+UVMode" name="Stretch" value="0" />
          <sharedMat dataType="Struct" type="Duality.ContentRef`1[[Duality.Resources.Material]]">
            <contentPath dataType="String">Data\Graphics\Sprites\Misc\normalexplosion.Material.res</contentPath>
          </sharedMat>
          <visibilityGroup dataType="Enum" type="Duality.Drawing.VisibilityFlag" name="Group0" value="1" />
        </item>
        <item dataType="Struct" type="The_ESG.VFXPrefBehaviour" id="3297964800">
          <active dataType="Bool">true</active>
          <anim dataType="ObjectRef">499759618</anim>
          <gameobj dataType="ObjectRef">792324237</gameobj>
        </item>
      </_items>
      <_size dataType="Int">3</_size>
      <_version dataType="Int">3</_version>
    </compList>
    <compMap dataType="Struct" type="System.Collections.Generic.Dictionary`2[[System.Type],[Duality.Component]]" id="2462201290" surrogate="true">
      <header />
      <body>
        <keys dataType="Array" type="System.Object[]" id="2340995308">
          <item dataType="Type" id="2900369508" value="Duality.Components.Transform" />
          <item dataType="Type" id="4221056022" value="Duality.Components.Renderers.AnimSpriteRenderer" />
          <item dataType="Type" id="1767858528" value="The_ESG.VFXPrefBehaviour" />
        </keys>
        <values dataType="Array" type="System.Object[]" id="2726641974">
          <item dataType="ObjectRef">3152639169</item>
          <item dataType="ObjectRef">499759618</item>
          <item dataType="ObjectRef">3297964800</item>
        </values>
      </body>
    </compMap>
    <compTransform dataType="ObjectRef">3152639169</compTransform>
    <identifier dataType="Struct" type="System.Guid" surrogate="true">
      <header>
        <data dataType="Array" type="System.Byte[]" id="503364024">mazjwNpNWESHcaK78I6JTA==</data>
      </header>
      <body />
    </identifier>
    <initState dataType="Enum" type="Duality.InitState" name="Initialized" value="1" />
    <name dataType="String">normalexplosion</name>
    <parent />
    <prefabLink />
  </objTree>
</root>
<!-- XmlFormatterBase Document Separator -->
