﻿<root dataType="Struct" type="Duality.Resources.Texture" id="129723834">
  <anisoFilter dataType="Bool">false</anisoFilter>
  <assetInfo />
  <basePixmap dataType="Struct" type="Duality.ContentRef`1[[Duality.Resources.Pixmap]]">
    <contentPath dataType="String">Data\Graphics\BGs\faintstars.Pixmap.res</contentPath>
  </basePixmap>
  <filterMag dataType="Enum" type="Duality.Drawing.TextureMagFilter" name="Nearest" value="0" />
  <filterMin dataType="Enum" type="Duality.Drawing.TextureMinFilter" name="Nearest" value="0" />
  <pixelformat dataType="Enum" type="Duality.Drawing.TexturePixelFormat" name="Rgba" value="3" />
  <size dataType="Struct" type="Duality.Vector2">
    <X dataType="Float">800</X>
    <Y dataType="Float">600</Y>
  </size>
  <texSizeMode dataType="Enum" type="Duality.Drawing.TextureSizeMode" name="Enlarge" value="0" />
  <wrapX dataType="Enum" type="Duality.Drawing.TextureWrapMode" name="Clamp" value="0" />
  <wrapY dataType="Enum" type="Duality.Drawing.TextureWrapMode" name="Repeat" value="1" />
</root>
<!-- XmlFormatterBase Document Separator -->
